<svg width="712" height="819" viewBox="0 0 712 819" fill="none" xmlns="http://www.w3.org/2000/svg">
<mask id="mask0_645_3220" style="mask-type:luminance" maskUnits="userSpaceOnUse" x="0" y="0" width="712" height="819">
<path d="M0 0H712V819H0V0Z" fill="white"/>
</mask>
<g mask="url(#mask0_645_3220)">
<mask id="mask1_645_3220" style="mask-type:luminance" maskUnits="userSpaceOnUse" x="0" y="0" width="712" height="819">
<path d="M647.91 659.27C647.91 711.91 605.082 754.738 552.438 754.738C499.793 754.738 456.965 711.91 456.965 659.27V657.648C456.965 605.012 499.793 562.172 552.438 562.172C605.082 562.172 647.91 605.012 647.91 657.648V659.27ZM382.719 659.27C382.719 711.91 339.891 754.738 287.246 754.738C234.602 754.738 191.77 711.91 191.77 659.27V159.91C191.77 107.262 234.602 64.4414 287.246 64.4414C339.891 64.4414 382.719 107.262 382.719 159.91V659.27ZM552.438 498.211C511.895 498.211 474.848 513.43 446.684 538.441V159.91C446.684 71.9883 375.16 0.46875 287.246 0.46875C235.203 0.46875 188.906 25.5312 159.789 64.2305C130.668 25.5312 84.375 0.46875 32.332 0.46875C14.668 0.46875 0.351562 14.7891 0.351562 32.4492C0.351562 50.1094 14.668 64.4414 32.332 64.4414C84.9766 64.4414 127.805 107.262 127.805 159.91V659.27C127.805 747.18 199.328 818.711 287.246 818.711C342.469 818.711 391.219 790.48 419.84 747.711C448.465 790.48 497.215 818.711 552.438 818.711C640.355 818.711 711.879 747.18 711.879 659.27V657.648C711.879 569.73 640.355 498.211 552.438 498.211Z" fill="white"/>
</mask>
<g mask="url(#mask1_645_3220)">
<mask id="mask2_645_3220" style="mask-type:luminance" maskUnits="userSpaceOnUse" x="0" y="0" width="712" height="819">
<path d="M647.91 659.27C647.91 711.91 605.082 754.738 552.438 754.738C499.793 754.738 456.965 711.91 456.965 659.27V657.648C456.965 605.012 499.793 562.172 552.438 562.172C605.082 562.172 647.91 605.012 647.91 657.648V659.27ZM382.719 659.27C382.719 711.91 339.891 754.738 287.246 754.738C234.602 754.738 191.77 711.91 191.77 659.27V159.91C191.77 107.262 234.602 64.4414 287.246 64.4414C339.891 64.4414 382.719 107.262 382.719 159.91V659.27ZM552.438 498.211C511.895 498.211 474.848 513.43 446.684 538.441V159.91C446.684 71.9883 375.16 0.46875 287.246 0.46875C235.203 0.46875 188.906 25.5312 159.789 64.2305C130.668 25.5312 84.375 0.46875 32.332 0.46875C14.668 0.46875 0.351562 14.7891 0.351562 32.4492C0.351562 50.1094 14.668 64.4414 32.332 64.4414C84.9766 64.4414 127.805 107.262 127.805 159.91V659.27C127.805 747.18 199.328 818.711 287.246 818.711C342.469 818.711 391.219 790.48 419.84 747.711C448.465 790.48 497.215 818.711 552.438 818.711C640.355 818.711 711.879 747.18 711.879 659.27V657.648C711.879 569.73 640.355 498.211 552.438 498.211Z" fill="white"/>
</mask>
<g mask="url(#mask2_645_3220)">
<path d="M0.351562 0.46875V818.711H711.879V0.46875H0.351562Z" fill="white"/>
</g>
</g>
</g>
</svg>
