<svg width="490" height="776" viewBox="0 0 490 776" fill="none" xmlns="http://www.w3.org/2000/svg">
<mask id="mask0_645_3701" style="mask-type:luminance" maskUnits="userSpaceOnUse" x="0" y="0" width="490" height="776">
<path d="M0 0H490V776H0V0Z" fill="white"/>
</mask>
<g mask="url(#mask0_645_3701)">
<mask id="mask1_645_3701" style="mask-type:luminance" maskUnits="userSpaceOnUse" x="0" y="0" width="490" height="776">
<path d="M187.551 64.8984H302.16V711.23H187.551V64.8984ZM457.078 711.23H366.121V64.8984H457.078C474.738 64.8984 489.059 50.5781 489.059 32.9219C489.059 15.25 474.738 0.929688 457.078 0.929688H32.6289C14.9688 0.929688 0.648438 15.25 0.648438 32.9219C0.648438 50.5781 14.9688 64.8984 32.6289 64.8984H123.578V711.23H32.6289C14.9688 711.23 0.648438 725.551 0.648438 743.211C0.648438 760.879 14.9688 775.199 32.6289 775.199H457.078C474.738 775.199 489.059 760.879 489.059 743.211C489.059 725.551 474.738 711.23 457.078 711.23Z" fill="white"/>
</mask>
<g mask="url(#mask1_645_3701)">
<mask id="mask2_645_3701" style="mask-type:luminance" maskUnits="userSpaceOnUse" x="0" y="0" width="490" height="776">
<path d="M187.551 64.8984H302.16V711.23H187.551V64.8984ZM457.078 711.23H366.121V64.8984H457.078C474.738 64.8984 489.059 50.5781 489.059 32.9219C489.059 15.25 474.738 0.929688 457.078 0.929688H32.6289C14.9688 0.929688 0.648438 15.25 0.648438 32.9219C0.648438 50.5781 14.9688 64.8984 32.6289 64.8984H123.578V711.23H32.6289C14.9688 711.23 0.648438 725.551 0.648438 743.211C0.648438 760.879 14.9688 775.199 32.6289 775.199H457.078C474.738 775.199 489.059 760.879 489.059 743.211C489.059 725.551 474.738 711.23 457.078 711.23Z" fill="white"/>
</mask>
<g mask="url(#mask2_645_3701)">
<path d="M0.648438 0.929688V775.199H489.059V0.929688H0.648438Z" fill="white"/>
</g>
</g>
</g>
</svg>
