<svg width="836" height="814" viewBox="0 0 836 814" fill="none" xmlns="http://www.w3.org/2000/svg">
<mask id="mask0_645_4221" style="mask-type:luminance" maskUnits="userSpaceOnUse" x="0" y="0" width="836" height="814">
<path d="M0 0H836V814H0V0Z" fill="white"/>
</mask>
<g mask="url(#mask0_645_4221)">
<mask id="mask1_645_4221" style="mask-type:luminance" maskUnits="userSpaceOnUse" x="0" y="0" width="836" height="814">
<path d="M809.422 606.48H655.5C640.852 606.48 628.969 618.359 628.969 633.012C628.969 647.66 640.852 659.531 655.5 659.531H740C731.711 694.398 700.328 720.422 662.969 720.422C619.309 720.422 583.781 684.898 583.781 641.23V132.871C583.781 59.9492 524.461 0.628906 451.539 0.628906C407.77 0.628906 368.91 22.0117 344.828 54.8711C320.738 22.0117 281.879 0.628906 238.109 0.628906C194.949 0.628906 156.551 21.4219 132.398 53.5117C108.25 21.4219 69.8516 0.628906 26.6797 0.628906C12.0312 0.628906 0.160156 12.5 0.160156 27.1484C0.160156 41.8086 12.0312 53.6797 26.6797 53.6797C70.3516 53.6797 105.871 89.2109 105.871 132.871V627.012C105.871 641.66 117.75 653.539 132.398 653.539C147.051 653.539 158.922 641.66 158.922 627.012V132.871C158.922 89.2109 194.449 53.6797 238.109 53.6797C281.77 53.6797 317.301 89.2109 317.301 132.871V627.012C317.301 641.66 329.18 653.539 343.828 653.539C344.16 653.539 344.488 653.5 344.828 653.488C345.16 653.5 345.488 653.539 345.82 653.539C360.469 653.539 372.352 641.66 372.352 627.012V132.871C372.352 89.2109 407.871 53.6797 451.539 53.6797C495.199 53.6797 530.73 89.2109 530.73 132.871V641.23C530.73 714.148 590.051 773.469 662.969 773.469C716 773.469 761.828 742.102 782.891 696.93V786.93C782.891 801.578 794.762 813.449 809.422 813.449C824.07 813.449 835.941 801.578 835.941 786.93V633.012C835.941 618.359 824.07 606.48 809.422 606.48Z" fill="white"/>
</mask>
<g mask="url(#mask1_645_4221)">
<mask id="mask2_645_4221" style="mask-type:luminance" maskUnits="userSpaceOnUse" x="0" y="0" width="836" height="814">
<path d="M809.422 606.48H655.5C640.852 606.48 628.969 618.359 628.969 633.012C628.969 647.66 640.852 659.531 655.5 659.531H740C731.711 694.398 700.328 720.422 662.969 720.422C619.309 720.422 583.781 684.898 583.781 641.23V132.871C583.781 59.9492 524.461 0.628906 451.539 0.628906C407.77 0.628906 368.91 22.0117 344.828 54.8711C320.738 22.0117 281.879 0.628906 238.109 0.628906C194.949 0.628906 156.551 21.4219 132.398 53.5117C108.25 21.4219 69.8516 0.628906 26.6797 0.628906C12.0312 0.628906 0.160156 12.5 0.160156 27.1484C0.160156 41.8086 12.0312 53.6797 26.6797 53.6797C70.3516 53.6797 105.871 89.2109 105.871 132.871V627.012C105.871 641.66 117.75 653.539 132.398 653.539C147.051 653.539 158.922 641.66 158.922 627.012V132.871C158.922 89.2109 194.449 53.6797 238.109 53.6797C281.77 53.6797 317.301 89.2109 317.301 132.871V627.012C317.301 641.66 329.18 653.539 343.828 653.539C344.16 653.539 344.488 653.5 344.828 653.488C345.16 653.5 345.488 653.539 345.82 653.539C360.469 653.539 372.352 641.66 372.352 627.012V132.871C372.352 89.2109 407.871 53.6797 451.539 53.6797C495.199 53.6797 530.73 89.2109 530.73 132.871V641.23C530.73 714.148 590.051 773.469 662.969 773.469C716 773.469 761.828 742.102 782.891 696.93V786.93C782.891 801.578 794.762 813.449 809.422 813.449C824.07 813.449 835.941 801.578 835.941 786.93V633.012C835.941 618.359 824.07 606.48 809.422 606.48Z" fill="white"/>
</mask>
<g mask="url(#mask2_645_4221)">
<path d="M0.160156 0.628906V813.449H835.941V0.628906H0.160156Z" fill="white"/>
</g>
</g>
</g>
</svg>
