<svg width="582" height="838" viewBox="0 0 582 838" fill="none" xmlns="http://www.w3.org/2000/svg">
<mask id="mask0_645_4469" style="mask-type:luminance" maskUnits="userSpaceOnUse" x="0" y="256" width="582" height="582">
<path d="M0 256H582V838H0V256Z" fill="white"/>
</mask>
<g mask="url(#mask0_645_4469)">
<mask id="mask1_645_4469" style="mask-type:luminance" maskUnits="userSpaceOnUse" x="0" y="256" width="582" height="582">
<path d="M291.113 320.48C166.305 320.48 64.7656 422.02 64.7656 546.828C64.7656 671.641 166.305 773.18 291.113 773.18C415.922 773.18 517.461 671.641 517.461 546.828C517.461 422.02 415.922 320.48 291.113 320.48ZM291.113 837.148C131.035 837.148 0.800781 706.91 0.800781 546.828C0.800781 386.75 131.035 256.52 291.113 256.52C451.191 256.52 581.43 386.75 581.43 546.828C581.43 706.91 451.191 837.148 291.113 837.148Z" fill="white"/>
</mask>
<g mask="url(#mask1_645_4469)">
<mask id="mask2_645_4469" style="mask-type:luminance" maskUnits="userSpaceOnUse" x="0" y="256" width="582" height="582">
<path d="M291.113 320.48C166.305 320.48 64.7656 422.02 64.7656 546.828C64.7656 671.641 166.305 773.18 291.113 773.18C415.922 773.18 517.461 671.641 517.461 546.828C517.461 422.02 415.922 320.48 291.113 320.48ZM291.113 837.148C131.035 837.148 0.800781 706.91 0.800781 546.828C0.800781 386.75 131.035 256.52 291.113 256.52C451.191 256.52 581.43 386.75 581.43 546.828C581.43 706.91 451.191 837.148 291.113 837.148Z" fill="white"/>
</mask>
<g mask="url(#mask2_645_4469)">
<path d="M0.800781 256.52V837.148H581.43V256.52H0.800781Z" fill="white"/>
</g>
</g>
</g>
<mask id="mask3_645_4469" style="mask-type:luminance" maskUnits="userSpaceOnUse" x="0" y="0" width="582" height="323">
<path d="M0 0H582V323H0V0Z" fill="white"/>
</mask>
<g mask="url(#mask3_645_4469)">
<mask id="mask4_645_4469" style="mask-type:luminance" maskUnits="userSpaceOnUse" x="0" y="0" width="582" height="323">
<path d="M291.113 322.738C131.035 322.738 0.800781 192.512 0.800781 32.4297C0.800781 14.7695 15.1172 0.449219 32.7812 0.449219C50.4492 0.449219 64.7656 14.7695 64.7656 32.4297C64.7656 157.238 166.305 258.781 291.113 258.781C415.922 258.781 517.461 157.238 517.461 32.4297C517.461 14.7695 531.777 0.449219 549.441 0.449219C567.109 0.449219 581.43 14.7695 581.43 32.4297C581.43 192.512 451.191 322.738 291.113 322.738Z" fill="white"/>
</mask>
<g mask="url(#mask4_645_4469)">
<mask id="mask5_645_4469" style="mask-type:luminance" maskUnits="userSpaceOnUse" x="0" y="0" width="582" height="323">
<path d="M291.113 322.738C131.035 322.738 0.800781 192.512 0.800781 32.4297C0.800781 14.7695 15.1172 0.449219 32.7812 0.449219C50.4492 0.449219 64.7656 14.7695 64.7656 32.4297C64.7656 157.238 166.305 258.781 291.113 258.781C415.922 258.781 517.461 157.238 517.461 32.4297C517.461 14.7695 531.777 0.449219 549.441 0.449219C567.109 0.449219 581.43 14.7695 581.43 32.4297C581.43 192.512 451.191 322.738 291.113 322.738Z" fill="white"/>
</mask>
<g mask="url(#mask5_645_4469)">
<path d="M0.800781 0.449219V322.738H581.43V0.449219H0.800781Z" fill="white"/>
</g>
</g>
</g>
</svg>
